-------------------------------------------------------------------------------
Test set: com.khunpon.week5.AppTest
-------------------------------------------------------------------------------
Tests run: 4, Failures: 0, Errors: 0, Skipped: 0, Time elapsed: 0.241 s - in com.khunpon.week5.AppTest
